{
  "type": "service_account",
  "project_id": "arassistantgsi",
  "private_key_id": "21a9592cffe9dccaf76ccb8124f5defe074a528a",
  "private_key": "-----BEGIN PRIVATE KEY-----\nMIIEvgIBADANBgkqhkiG9w0BAQEFAASCBKgwggSkAgEAAoIBAQDNtVIxtLvwzKN4\nboiIiWppt7uwb+Ocu5CRpOfNXDlMOItcKicICd2JbaHb5tJysJdBXloRx019HH4l\n4yrzRizLlYOKp6N7XpOJwrZ4/ZVVc0u1vOJj2/Ndq2+r947m6JlNnN8dOpG1CSBE\np1oLm0oHD1h9BAgpzJ2k9vPeA3lPmWFZY+PjEuHh3jBa1v9o4AEC98rlKGMrjTYA\n8U5Q1fNNIh9ogtaZlxS3wyRmuDxN0B8ILso+tfoaYjoC1lQHw1Jrv7qKTNSngZkP\ndYQHqtwzGhMxzC4EfMnrJSQWh3bLMl7GJ9E3YFG3J6zM10qQdH6w7YTdAIwIArc2\nO3TrvCDfAgMBAAECggEAIAwZjAjeJrua1A5UUwElhObM5MXpredCtI3+Vu4BNzCv\n9WHTxtrSmrBrwPiK3LdKOTLb0V09YzpnJLvpWxEZtXXLknRfcb7gOVwOVXccJr3Z\nk6yjkG8Z0QP+V8ovhyXBjGfeEo2nWY7cahWwX5KHy+XGIWPZabmo7aRThckAwzeY\nVp5lXuZpOTkID9A7bmODGOWXXTVoMJirRU9oZbZCr31WhfLsTVp8Wzbml3BC0sSV\n4kAqoIgMSEyEVcBx+2D8QjIsq/XljqQZeJidZXWBzHAAd8mCMQXlAY73O03InZFZ\n0kzbYE6bDPGUg9MOZGjq02VWuaqQm/XxJPMhpTT1IQKBgQD2RtiL01zdcGOh4OIy\nfsZ+aYjcBLRjRuptnsikth5THwDoaujm+EBzI+ip0OY4V36qXHQ7k0BSgd780c7D\nRorvKEl4zQmyrKWeuAaKvtdTp+svnwmgpQ6l78DwckYENz6GpRUhnFyc/vcPmwi6\nAYqk5bu0Qp6qfl+X+yvgis/I2QKBgQDV1HGrRdMzI6Ty2W25PcVtOfyKnO+gdqRk\nCjv59jgKv6fPDdAJzMvIGQ/wuQ1iAxIA6ShOkIOGY8nHo/JcJ7JA+8qIMTzgX9BK\ndXgmnY1L0TF5UTfyWvcKeI8OugtKegcEBDi0l03W1KhUC444g39Ox1RDQ4uyVhKF\nTrYnGZlkdwKBgQCAdhn0ba7uDvbZdJ1oq3pMbC4oXgfeFRqpTX7pc9nDj9OAaGvO\nNsYfiSaOldnQn8sBgDJc9QVDRF0VUTdh4sUL1N7mNUWOvsGxVdqLutpE17003Oc/\ntXk7kyD4CxN8lXh28VthaddhSRmEOWFG7RDtzKupbmqnEj4435pWiPGzmQKBgAZR\nEEqO9X49P1ItOiCOwpZHcD5oBGwpFRIfe0YXD/DBWKO1NMAVXK+8jcv+q3aJwK5m\nNNqdSkVeDUfof/BY+9sPlRwQ2EuIiQ6qCbKaVOI4e82pqI1wQnv8s70rocnBcROd\nTE+JaLM/9PkGnlztBYW+Pa7+/9F02Xc2rArbprxhAoGBAI8DhHbfJGiJ/Y5PF0E+\nZc7utlaPRffc9VNdyjbu5d99Ibj5ra6xhjxYIS5qh0LzO1UYjLC3J55u+jiVsznr\nOdQdSAqgLJOMb7Hn95p1YwBa04s1L+g7yunA/LjYRVYYD6h7S8/y35dwkD1zCEpc\nSUfTifqXiXwyb+HPh5pUehyB\n-----END PRIVATE KEY-----\n",
  "client_email": "esupmditgsi@arassistantgsi.iam.gserviceaccount.com",
  "client_id": "102447996200652390748",
  "auth_uri": "https://accounts.google.com/o/oauth2/auth",
  "token_uri": "https://oauth2.googleapis.com/token",
  "auth_provider_x509_cert_url": "https://www.googleapis.com/oauth2/v1/certs",
  "client_x509_cert_url": "https://www.googleapis.com/robot/v1/metadata/x509/esupmditgsi%40arassistantgsi.iam.gserviceaccount.com"
}
